%TF.GenerationSoftware,KiCad,Pcbnew,5.1.9+dfsg1-1~bpo10+1*%
%TF.CreationDate,2021-04-04T20:51:52+02:00*%
%TF.ProjectId,breadboard_power_supply,62726561-6462-46f6-9172-645f706f7765,rev?*%
%TF.SameCoordinates,Original*%
%TF.FileFunction,Profile,NP*%
%FSLAX46Y46*%
G04 Gerber Fmt 4.6, Leading zero omitted, Abs format (unit mm)*
G04 Created by KiCad (PCBNEW 5.1.9+dfsg1-1~bpo10+1) date 2021-04-04 20:51:52*
%MOMM*%
%LPD*%
G01*
G04 APERTURE LIST*
%TA.AperFunction,Profile*%
%ADD10C,0.050000*%
%TD*%
G04 APERTURE END LIST*
D10*
X119380000Y-114300000D02*
X123825000Y-110490000D01*
X111760000Y-83820000D02*
X111760000Y-114300000D01*
X165100000Y-114300000D02*
X165100000Y-83820000D01*
X111760000Y-83820000D02*
X165100000Y-83820000D01*
X157480000Y-114300000D02*
X165100000Y-114300000D01*
X153035000Y-110490000D02*
X157480000Y-114300000D01*
X123825000Y-110490000D02*
X153035000Y-110490000D01*
X111760000Y-114300000D02*
X119380000Y-114300000D01*
M02*
