%TF.GenerationSoftware,KiCad,Pcbnew,5.1.9+dfsg1-1~bpo10+1*%
%TF.CreationDate,2021-04-04T20:51:52+02:00*%
%TF.ProjectId,breadboard_power_supply,62726561-6462-46f6-9172-645f706f7765,rev?*%
%TF.SameCoordinates,Original*%
%TF.FileFunction,Paste,Top*%
%TF.FilePolarity,Positive*%
%FSLAX46Y46*%
G04 Gerber Fmt 4.6, Leading zero omitted, Abs format (unit mm)*
G04 Created by KiCad (PCBNEW 5.1.9+dfsg1-1~bpo10+1) date 2021-04-04 20:51:52*
%MOMM*%
%LPD*%
G01*
G04 APERTURE LIST*
%ADD10R,1.500000X1.900000*%
%ADD11R,0.400000X1.350000*%
G04 APERTURE END LIST*
D10*
%TO.C,J2*%
X160385000Y-85122500D03*
D11*
X159385000Y-87822500D03*
X158735000Y-87822500D03*
X158085000Y-87822500D03*
X160685000Y-87822500D03*
X160035000Y-87822500D03*
D10*
X158385000Y-85122500D03*
%TD*%
M02*
