EESchema Schematic File Version 4
EELAYER 30 0
EELAYER END
$Descr A4 11693 8268
encoding utf-8
Sheet 1 1
Title ""
Date ""
Rev ""
Comp ""
Comment1 ""
Comment2 ""
Comment3 ""
Comment4 ""
$EndDescr
$Comp
L Device:C C1
U 1 1 603BFC0B
P 4200 3000
F 0 "C1" H 4315 3046 50  0000 L CNN
F 1 "104" H 4315 2955 50  0000 L CNN
F 2 "Capacitor_THT:C_Disc_D4.3mm_W1.9mm_P5.00mm" H 4238 2850 50  0001 C CNN
F 3 "~" H 4200 3000 50  0001 C CNN
	1    4200 3000
	1    0    0    -1  
$EndComp
$Comp
L Device:LED D2
U 1 1 603C33FE
P 5200 3000
F 0 "D2" V 5239 2883 50  0000 R CNN
F 1 "LED" V 5148 2883 50  0000 R CNN
F 2 "LED_THT:LED_D3.0mm" H 5200 3000 50  0001 C CNN
F 3 "~" H 5200 3000 50  0001 C CNN
	1    5200 3000
	0    -1   -1   0   
$EndComp
$Comp
L Device:R R1
U 1 1 603C6035
P 5500 3450
F 0 "R1" V 5293 3450 50  0000 C CNN
F 1 "470" V 5384 3450 50  0000 C CNN
F 2 "Resistor_THT:R_Axial_DIN0207_L6.3mm_D2.5mm_P10.16mm_Horizontal" V 5430 3450 50  0001 C CNN
F 3 "~" H 5500 3450 50  0001 C CNN
	1    5500 3450
	0    1    1    0   
$EndComp
$Comp
L Device:C C3
U 1 1 603C78F9
P 6450 3050
F 0 "C3" H 6565 3096 50  0000 L CNN
F 1 "100nF" H 6565 3005 50  0000 L CNN
F 2 "Capacitor_THT:C_Disc_D4.3mm_W1.9mm_P5.00mm" H 6488 2900 50  0001 C CNN
F 3 "~" H 6450 3050 50  0001 C CNN
	1    6450 3050
	1    0    0    -1  
$EndComp
$Comp
L Device:CP C2
U 1 1 603C89BB
P 5950 2850
F 0 "C2" H 6068 2896 50  0000 L CNN
F 1 "47uF" H 6068 2805 50  0000 L CNN
F 2 "Capacitor_THT:CP_Radial_D6.3mm_P2.50mm" H 5988 2700 50  0001 C CNN
F 3 "~" H 5950 2850 50  0001 C CNN
	1    5950 2850
	1    0    0    -1  
$EndComp
$Comp
L Device:C C4
U 1 1 603CA86A
P 7750 3050
F 0 "C4" H 7865 3096 50  0000 L CNN
F 1 "100nF" H 7865 3005 50  0000 L CNN
F 2 "Capacitor_THT:C_Disc_D4.3mm_W1.9mm_P5.00mm" H 7788 2900 50  0001 C CNN
F 3 "~" H 7750 3050 50  0001 C CNN
	1    7750 3050
	1    0    0    -1  
$EndComp
$Comp
L Connector:Conn_01x04_Male J8
U 1 1 603CF308
P 8650 2500
F 0 "J8" H 8800 2800 50  0000 R CNN
F 1 "Conn_01x04_Male" H 9100 2700 50  0000 R CNN
F 2 "Connector_PinHeader_2.54mm:PinHeader_1x04_P2.54mm_Vertical" H 8650 2500 50  0001 C CNN
F 3 "~" H 8650 2500 50  0001 C CNN
	1    8650 2500
	-1   0    0    -1  
$EndComp
$Comp
L Connector:Conn_01x04_Male J9
U 1 1 603CFA3B
P 8650 3200
F 0 "J9" H 8758 3481 50  0000 C CNN
F 1 "Conn_01x04_Male" H 8758 3390 50  0000 C CNN
F 2 "Connector_PinHeader_2.54mm:PinHeader_1x04_P2.54mm_Vertical" H 8650 3200 50  0001 C CNN
F 3 "~" H 8650 3200 50  0001 C CNN
	1    8650 3200
	-1   0    0    -1  
$EndComp
$Comp
L Connector:Conn_01x02_Male J4
U 1 1 603D08E4
P 7750 4000
F 0 "J4" H 7858 4181 50  0000 C CNN
F 1 "Conn_01x02_Male" H 7858 4090 50  0000 C CNN
F 2 "Connector_PinHeader_2.54mm:PinHeader_1x02_P2.54mm_Vertical" H 7750 4000 50  0001 C CNN
F 3 "~" H 7750 4000 50  0001 C CNN
	1    7750 4000
	1    0    0    -1  
$EndComp
$Comp
L Connector:Conn_01x02_Male J5
U 1 1 603D12D1
P 7750 4450
F 0 "J5" H 7858 4631 50  0000 C CNN
F 1 "Conn_01x02_Male" H 7858 4540 50  0000 C CNN
F 2 "Connector_PinHeader_2.54mm:PinHeader_1x02_P2.54mm_Vertical" H 7750 4450 50  0001 C CNN
F 3 "~" H 7750 4450 50  0001 C CNN
	1    7750 4450
	1    0    0    -1  
$EndComp
$Comp
L Connector:Conn_01x02_Male J6
U 1 1 603D17ED
P 7750 5100
F 0 "J6" H 7858 5281 50  0000 C CNN
F 1 "Conn_01x02_Male" H 7858 5190 50  0000 C CNN
F 2 "Connector_PinHeader_2.54mm:PinHeader_1x02_P2.54mm_Vertical" H 7750 5100 50  0001 C CNN
F 3 "~" H 7750 5100 50  0001 C CNN
	1    7750 5100
	1    0    0    -1  
$EndComp
$Comp
L Connector:Conn_01x02_Male J7
U 1 1 603D22EF
P 7750 5550
F 0 "J7" H 7858 5731 50  0000 C CNN
F 1 "Conn_01x02_Male" H 7858 5640 50  0000 C CNN
F 2 "Connector_PinHeader_2.54mm:PinHeader_1x02_P2.54mm_Vertical" H 7750 5550 50  0001 C CNN
F 3 "~" H 7750 5550 50  0001 C CNN
	1    7750 5550
	1    0    0    -1  
$EndComp
$Comp
L power:GND #PWR0101
U 1 1 603D988B
P 2625 3050
F 0 "#PWR0101" H 2625 2800 50  0001 C CNN
F 1 "GND" H 2630 2877 50  0000 C CNN
F 2 "" H 2625 3050 50  0001 C CNN
F 3 "" H 2625 3050 50  0001 C CNN
	1    2625 3050
	1    0    0    -1  
$EndComp
$Comp
L power:GND #PWR0102
U 1 1 603D9EEA
P 4550 3250
F 0 "#PWR0102" H 4550 3000 50  0001 C CNN
F 1 "GND" H 4555 3077 50  0000 C CNN
F 2 "" H 4550 3250 50  0001 C CNN
F 3 "" H 4550 3250 50  0001 C CNN
	1    4550 3250
	1    0    0    -1  
$EndComp
$Comp
L power:GND #PWR0103
U 1 1 603DAD30
P 7100 3500
F 0 "#PWR0103" H 7100 3250 50  0001 C CNN
F 1 "GND" H 7105 3327 50  0000 C CNN
F 2 "" H 7100 3500 50  0001 C CNN
F 3 "" H 7100 3500 50  0001 C CNN
	1    7100 3500
	1    0    0    -1  
$EndComp
Wire Wire Line
	3800 2700 4200 2700
Wire Wire Line
	4200 2700 4200 2850
Wire Wire Line
	4400 2700 4200 2700
Connection ~ 4200 2700
Wire Wire Line
	4200 3150 4550 3150
Wire Wire Line
	4550 3150 4550 3250
Wire Wire Line
	4700 3000 4700 3150
Wire Wire Line
	4700 3150 4550 3150
Connection ~ 4550 3150
Wire Wire Line
	5000 2700 5200 2700
Wire Wire Line
	5200 2700 5200 2850
Wire Wire Line
	5200 3150 5200 3450
Wire Wire Line
	5200 3450 5350 3450
Connection ~ 5200 2700
Wire Wire Line
	5650 3450 5950 3450
Wire Wire Line
	5950 3450 5950 3000
Wire Wire Line
	6450 3200 6450 3450
Wire Wire Line
	6450 3450 5950 3450
Connection ~ 5950 3450
Wire Wire Line
	6450 2700 6450 2900
Wire Wire Line
	7100 3000 7100 3450
Wire Wire Line
	7100 3450 6450 3450
Connection ~ 6450 3450
Wire Wire Line
	7100 3500 7100 3450
Connection ~ 7100 3450
Wire Wire Line
	7400 2700 7750 2700
Wire Wire Line
	7750 2700 7750 2900
Wire Wire Line
	7750 3200 7750 3450
Wire Wire Line
	7750 3450 7100 3450
Wire Wire Line
	8450 2700 8200 2700
Connection ~ 7750 2700
Wire Wire Line
	6800 2700 6450 2700
Wire Wire Line
	8450 3100 8300 3100
Wire Wire Line
	8200 3400 8200 2700
Wire Wire Line
	8200 3400 8450 3400
Connection ~ 8200 2700
Wire Wire Line
	8200 2700 7750 2700
Wire Wire Line
	8450 3200 8800 3200
Wire Wire Line
	8450 3300 8800 3300
Wire Wire Line
	8800 3300 8800 3200
Connection ~ 8800 3200
Wire Wire Line
	8800 3200 8950 3200
Wire Wire Line
	8450 2600 8800 2600
$Comp
L power:GND #PWR0104
U 1 1 60420A50
P 8050 4100
F 0 "#PWR0104" H 8050 3850 50  0001 C CNN
F 1 "GND" H 8055 3927 50  0000 C CNN
F 2 "" H 8050 4100 50  0001 C CNN
F 3 "" H 8050 4100 50  0001 C CNN
	1    8050 4100
	1    0    0    -1  
$EndComp
$Comp
L power:GND #PWR0105
U 1 1 60420E3B
P 8050 4550
F 0 "#PWR0105" H 8050 4300 50  0001 C CNN
F 1 "GND" H 8055 4377 50  0000 C CNN
F 2 "" H 8050 4550 50  0001 C CNN
F 3 "" H 8050 4550 50  0001 C CNN
	1    8050 4550
	1    0    0    -1  
$EndComp
$Comp
L power:GND #PWR0106
U 1 1 60421220
P 8050 5200
F 0 "#PWR0106" H 8050 4950 50  0001 C CNN
F 1 "GND" H 8055 5027 50  0000 C CNN
F 2 "" H 8050 5200 50  0001 C CNN
F 3 "" H 8050 5200 50  0001 C CNN
	1    8050 5200
	1    0    0    -1  
$EndComp
$Comp
L power:GND #PWR0107
U 1 1 60421635
P 8050 5650
F 0 "#PWR0107" H 8050 5400 50  0001 C CNN
F 1 "GND" H 8055 5477 50  0000 C CNN
F 2 "" H 8050 5650 50  0001 C CNN
F 3 "" H 8050 5650 50  0001 C CNN
	1    8050 5650
	1    0    0    -1  
$EndComp
Wire Wire Line
	7950 4100 8050 4100
Wire Wire Line
	7950 4550 8050 4550
Wire Wire Line
	8050 5200 7950 5200
Wire Wire Line
	7950 5650 8050 5650
Wire Wire Line
	7950 4000 8550 4000
Wire Wire Line
	7950 4450 8550 4450
Wire Wire Line
	8550 4450 8550 4000
Connection ~ 8550 4000
Wire Wire Line
	8550 4000 8700 4000
Wire Wire Line
	7950 5100 8550 5100
Wire Wire Line
	7950 5550 8550 5550
Wire Wire Line
	8550 5550 8550 5100
Connection ~ 8550 5100
Wire Wire Line
	8550 5100 8700 5100
Connection ~ 8800 2500
Wire Wire Line
	8800 2600 8800 2500
Wire Wire Line
	8450 2500 8800 2500
Wire Wire Line
	8800 2500 8950 2500
Text Label 8950 2500 0    50   ~ 0
Breadboard_VCC_Out_1
Text Label 8950 3200 0    50   ~ 0
Breadboard_VCC_Out_2
Text Label 8700 5100 0    50   ~ 0
Breadboard_VCC_Out_2
Text Label 8700 4000 0    50   ~ 0
Breadboard_VCC_Out_1
Text Label 5200 2700 0    50   ~ 0
+5V
Text Label 7750 2700 0    50   ~ 0
+3.3V
$Comp
L Connector_Generic:Conn_02x04_Odd_Even J3
U 1 1 60444F20
P 6100 4250
F 0 "J3" H 6150 4567 50  0000 C CNN
F 1 "Conn_02x04_Odd_Even" H 6150 4476 50  0000 C CNN
F 2 "Connector_PinHeader_2.54mm:PinHeader_2x04_P2.54mm_Vertical" H 6100 4250 50  0001 C CNN
F 3 "~" H 6100 4250 50  0001 C CNN
	1    6100 4250
	1    0    0    -1  
$EndComp
Text Label 5650 4150 0    50   ~ 0
+5V
Wire Wire Line
	5900 4150 5650 4150
Wire Wire Line
	5900 4250 5650 4250
Wire Wire Line
	5900 4350 5650 4350
Wire Wire Line
	5900 4450 5650 4450
Text Label 5650 4250 0    50   ~ 0
+5V
Text Label 5650 4350 0    50   ~ 0
+3.3V
Text Label 5650 4450 0    50   ~ 0
+3.3V
Wire Wire Line
	6400 4150 6500 4150
Wire Wire Line
	6500 4150 6500 4250
Wire Wire Line
	6400 4250 6500 4250
Connection ~ 6500 4250
Wire Wire Line
	6500 4250 6500 4350
Wire Wire Line
	6400 4350 6500 4350
Connection ~ 6500 4350
Wire Wire Line
	6500 4350 6500 4450
Connection ~ 6500 4450
$Comp
L power:GND #PWR0108
U 1 1 60461B37
P 6500 4550
F 0 "#PWR0108" H 6500 4300 50  0001 C CNN
F 1 "GND" H 6505 4377 50  0000 C CNN
F 2 "" H 6500 4550 50  0001 C CNN
F 3 "" H 6500 4550 50  0001 C CNN
	1    6500 4550
	1    0    0    -1  
$EndComp
Wire Wire Line
	6400 4450 6500 4450
Wire Wire Line
	6500 4450 6500 4550
Text Label 2250 2400 0    50   ~ 0
USB_VCC
Wire Wire Line
	2525 3000 2625 3000
Wire Wire Line
	2625 3000 2625 3050
Text Label 4200 2700 0    50   ~ 0
Vin
$Comp
L Connector:USB_B_Micro J2
U 1 1 605A4E5E
P 4600 4200
F 0 "J2" H 4657 4667 50  0000 C CNN
F 1 "USB_B_Micro" H 4657 4576 50  0000 C CNN
F 2 "Connector_USB:USB_Micro-B_Molex-105017-0001" H 4750 4150 50  0001 C CNN
F 3 "~" H 4750 4150 50  0001 C CNN
	1    4600 4200
	1    0    0    -1  
$EndComp
NoConn ~ 4900 4300
NoConn ~ 4900 4400
$Comp
L Diode:1N4007 D1
U 1 1 603BDF9D
P 3650 2700
F 0 "D1" H 3650 2916 50  0000 C CNN
F 1 "1N4007" H 3650 2825 50  0000 C CNN
F 2 "Diode_THT:D_DO-41_SOD81_P10.16mm_Horizontal" H 3650 2525 50  0001 C CNN
F 3 "http://www.vishay.com/docs/88503/1n4001.pdf" H 3650 2700 50  0001 C CNN
	1    3650 2700
	-1   0    0    -1  
$EndComp
$Comp
L Connector:Barrel_Jack J1
U 1 1 603CCAF7
P 2225 2900
F 0 "J1" H 2225 2650 50  0000 C CNN
F 1 "Barrel_Jack" H 2282 3134 50  0000 C CNN
F 2 "Connector_BarrelJack:BarrelJack_Horizontal" H 2275 2860 50  0001 C CNN
F 3 "~" H 2275 2860 50  0001 C CNN
	1    2225 2900
	1    0    0    -1  
$EndComp
Wire Wire Line
	5200 2300 5200 2700
NoConn ~ 4900 4200
Text Label 5150 4000 0    50   ~ 0
USB_VCC
$Comp
L power:GND #PWR01
U 1 1 605A8E0A
P 4600 4650
F 0 "#PWR01" H 4600 4400 50  0001 C CNN
F 1 "GND" H 4605 4477 50  0000 C CNN
F 2 "" H 4600 4650 50  0001 C CNN
F 3 "" H 4600 4650 50  0001 C CNN
	1    4600 4650
	1    0    0    -1  
$EndComp
Wire Wire Line
	4600 4650 4600 4600
Wire Wire Line
	4500 4600 4600 4600
Connection ~ 4600 4600
Wire Wire Line
	4900 4000 5150 4000
Wire Wire Line
	2800 2800 2525 2800
Wire Wire Line
	2250 2400 2800 2400
$Comp
L Switch:SW_Push_DPDT SW1
U 1 1 605F1239
P 3000 2600
F 0 "SW1" H 3000 3085 50  0000 C CNN
F 1 "SW_Push_DPDT" H 3000 2994 50  0000 C CNN
F 2 "Button_Switch_THT:SW_E-Switch_EG1271_DPDT" H 3000 2800 50  0001 C CNN
F 3 "~" H 3000 2800 50  0001 C CNN
	1    3000 2600
	1    0    0    -1  
$EndComp
Wire Wire Line
	3500 2700 3200 2700
Wire Wire Line
	3200 2300 5200 2300
Connection ~ 5200 2300
Wire Wire Line
	5200 2300 5950 2300
Connection ~ 5950 2300
Wire Wire Line
	5950 2300 6450 2300
Wire Wire Line
	8300 3100 8300 2400
Wire Wire Line
	8450 2400 8300 2400
Wire Wire Line
	6450 2700 6450 2300
Connection ~ 6450 2300
Wire Wire Line
	6450 2300 8125 2300
Wire Wire Line
	8300 2400 8125 2400
Wire Wire Line
	8125 2400 8125 2300
Connection ~ 8300 2400
Wire Wire Line
	5950 2300 5950 2700
Connection ~ 6450 2700
NoConn ~ 3200 2500
NoConn ~ 3200 2900
Text Label 5100 5350 0    50   ~ 0
Vin
Wire Wire Line
	5100 5250 5100 5350
$Comp
L power:PWR_FLAG #FLG0103
U 1 1 6052C112
P 5100 5250
F 0 "#FLG0103" H 5100 5325 50  0001 C CNN
F 1 "PWR_FLAG" H 5100 5423 50  0000 C CNN
F 2 "" H 5100 5250 50  0001 C CNN
F 3 "~" H 5100 5250 50  0001 C CNN
	1    5100 5250
	1    0    0    -1  
$EndComp
$Comp
L Regulator_Linear:L7805 U1
U 1 1 606CCDF5
P 4700 2700
F 0 "U1" H 4700 2942 50  0000 C CNN
F 1 "L7805" H 4700 2851 50  0000 C CNN
F 2 "Package_TO_SOT_THT:TO-220-3_Vertical" H 4725 2550 50  0001 L CIN
F 3 "http://www.st.com/content/ccc/resource/technical/document/datasheet/41/4f/b3/b0/12/d4/47/88/CD00000444.pdf/files/CD00000444.pdf/jcr:content/translations/en.CD00000444.pdf" H 4700 2650 50  0001 C CNN
	1    4700 2700
	1    0    0    -1  
$EndComp
$Comp
L Regulator_Linear:LM1117-3.3 U2
U 1 1 603BD59C
P 7100 2700
F 0 "U2" H 7100 2942 50  0000 C CNN
F 1 "LM1117-3.3" H 7100 2851 50  0000 C CNN
F 2 "Package_TO_SOT_THT:TO-220-3_Vertical" H 7100 2700 50  0001 C CNN
F 3 "http://www.ti.com/lit/ds/symlink/lm1117.pdf" H 7100 2700 50  0001 C CNN
	1    7100 2700
	1    0    0    -1  
$EndComp
$EndSCHEMATC
